2.50	90.00	30.00	90.00	90.00	30.00	19.49942	-12.01984	35.62774	-15.05767	12.51302	21.06327	-1.56385	-0.41493	-0.10759	 1.04072	-0.42514	 0.22993	-0.19108 -14.38804	2.95392		-2.16565	2.68448		-10.74864	8.71606		
2.00	90.00	0.00	180.00	90.00	0.00	222.49673	-159.07160	461.48390	-266.48977	147.27185	183.19438	39.30235	 0.88145	-1.22999	-3.78545	-7.52139	-6.42856	 3.55266 -65.15726	17.23916	-10.44805	12.57673	-59.79198	162.17602   
2.00	90.00	0.00	180.00	90.00	180.00	158.22923	-123.72374	308.54381	-157.59217	113.58638	140.81428	17.41495	 0.89511	-1.08861	-0.19990	-4.61728	-2.98354	 2.15042 -53.16307	13.22833	-8.11524	13.08811	-40.65749	117.42357   
2.00	90.00	180.00	180.00	90.00	0.00	289.93958	-194.43383	614.80274	-375.02382	182.50452	227.84962	62.08996	 0.89145	-1.37254	-7.83344	-10.06447	-9.73087	 4.73551 -77.15268	21.24323	-12.77323	12.34062	-78.93621	210.22316   
3.00	45.00	0.00	0.00	45.00	0.00	74.89352	-45.89025	131.00770	-61.64755	46.95164	70.42154	 4.47198	-0.96754	-0.18022	 1.48501	-1.62494	-1.04499	 0.79588 -27.91432	 6.03994	-4.03838	 6.29424	-20.97270	53.73819    
3.00	45.00	0.00	135.00	135.00	0.00	182.50970	-85.48406	309.92633	-158.13076	80.21004	146.52155	35.98814	-8.25193	 1.58548	-1.09784	-0.05088	-5.25518	 2.66563 -45.83021	 8.32642	-5.80834	 6.41073	-45.85590	135.20358   
3.00	45.00	0.00	180.00	135.00	0.00	143.03888	-64.99098	245.60678	-127.54115	72.72364	125.79828	17.24060	-7.59077	 1.53758	-0.27515	 0.80087	-4.10217	 2.33905 -40.47117	 7.48979	-5.45785	 5.97701	-38.18067	103.28607   
3.00	45.00	0.00	45.00	45.00	0.00	99.78005	-63.62107	176.19098	-84.59121	59.48236	87.46107	12.31899	-0.15557	-0.47186	 1.43139	-3.07268	-1.86141	 1.30890 -32.16922	 7.14281	-4.56942	 7.20633	-25.14360	74.56932    
3.00	45.00	0.00	90.00	135.00	0.00	446.33335	-197.66706	752.86115	-419.40838	74.95285	210.73857	235.59478	-7.00875	 0.98693	-4.87075	-7.87334	-7.74712	 1.38449 -73.46236	13.54240	-7.44147	 2.00782	-90.92470	355.85122   
3.00	45.00	0.00	90.00	45.00	0.00	223.13677	-152.23970	473.63102	-305.97405	114.15094	129.56820	93.56857	 0.39105	-0.57807	-3.96803	-8.71376	-5.52100	 2.05974 -53.87398	14.31253	-8.37776	 6.16081	-58.03150	165.02831   
3.00	90.00	0.00	0.00	0.00	0.00	104.04120	-108.66886	257.50307	-167.15935	98.38951	80.06438	23.97682	-4.98327	 0.86564	 0.56959	-1.57222	-8.20785	 4.83112 -37.94098	12.52787	-9.56799	 7.98521	-33.61691	68.54832    
3.00	90.00	0.00	0.00	180.00	0.00	228.77578	-134.85648	404.82835	-206.03523	113.22307	177.15971	51.61607	-7.00793	 1.08315	-2.97118	-3.27599	-7.91778	 4.35108 -55.93241	12.46445	-7.78338	10.57606	-54.94250	172.36185   
3.00	90.00	0.00	0.00	90.00	0.00	22.43835	-1.78073	27.89095	-8.86907	6.71880		23.95995	-1.52161	-2.21757	 0.45551	 0.62130	 0.41157	-0.05491	 0.04160 -9.70359	 1.51028	-1.42594	 1.53928	-8.57712	13.61588    
3.00	90.00	0.00	180.00	90.00	0.00	4.19013		-13.34379	21.49663	-7.66674	5.72153		6.20762		-2.01750	 1.20982	-0.29302	 0.47598	 0.11601	 0.05009	-0.03738 -8.97214	 1.53678	-1.19424	 1.48364	-5.58070	-1.43434    
3.00	90.00	0.00	180.00	90.00	180.00	1.45807		-9.88171	13.38532	-5.09568	3.98959		2.39752		-0.93945	 1.21483	-0.32917	 0.33607	 0.09468	 0.16094	-0.12601 -7.43594	 1.36826	-1.01434	 1.14137	-4.59582	-3.13124    
3.00	90.00	180.00	0.00	0.00	0.00	116.46218	-113.02199	273.07153	-168.77535	97.63349	88.90768	27.55450	-4.90983	 0.79816	 0.57629	-2.57255	-8.41014	 4.86511 -39.46863	12.67432	-9.65493	 8.10783	-36.22958	78.46782    
3.00	90.00	180.00	0.00	90.00	0.00	51.87432	 0.38434	66.89088	-25.30814	14.47481	56.44189	-4.56757	-2.62218	 0.21059	 0.80008	 0.33074	-0.48088	 0.27504 -13.61648	 1.34258	-1.54521	 1.52285	-13.29927	38.09145    
3.00	90.00	180.00	180.00	90.00	0.00	7.14078		-16.78860	29.68988	-10.24031	7.46751		10.12848	-2.98769	 1.20755	-0.25807	 0.60314	 0.13863	-0.05782	 0.04216 -10.50805	 1.70415	-1.37477	 1.84228	-6.56832	 0.47999    
3.00	90.00	30.00	90.00	90.00	30.00	4.14985		-2.66031	8.02283		-3.01268	2.23143		4.58127		-0.43141	-0.12664	-0.02280	 0.28647	-0.03312	 0.11593	-0.08587 -6.02156	 1.10634	-0.84360	 0.77074	-4.85615	-0.70426    
4.00	135	00	0.00	0.00	0.00	0.00	50.98951	-29.24334	91.26066	-44.13598	34.42099	52.30233	-1.31282	-3.72785	 0.97389	 0.38204	 0.98162	-3.44253	 2.68478 -17.50970	 5.14972	-4.01121	 4.40034	-13.21501	36.87061    
4.00	135.00	0.00	0.00	45.00	0.00	33.92244	-10.98580	51.81105	-20.94137	17.29577	37.17965	-3.25721	-3.13314	 0.81467	-0.23968	 2.66530	-2.17448	 1.79593 -11.33622	 3.61853	-3.12081	 2.81463	-7.27413	25.62718    
4.00	45.00	0.00	0.00	0.00	0.00	81.23149	-58.12314	152.73895	-64.50881	42.26432	72.37131	 8.86018	-3.33885	 0.93439	 1.00467	 1.29222	-4.83506	 3.16779 -23.76597	 4.85790	-4.08151	 4.55887	-18.83412	61.02594    
4.00	45.00	0.00	0.00	135.00	0.00	162.45062	-70.38166	262.27924	-106.79304	44.08794	129.19247	33.25815	-4.66576	 1.23543	 1.14444	-0.80542	-4.66024	 1.92391 -30.79739	 2.94033	-2.28869	 2.73434	-32.90739	129.21156   
4.00	45.00	0.00	0.00	180.00	0.00	226.46750	-59.11247	315.10655	-115.91085	53.55899	193.64222	32.82527	-4.78995	 0.71747	-2.77804	-1.13434	-5.28027	 2.43986 -38.00037	 2.84345	-2.62478	 3.99174	-44.27758	181.85226   
4.00	45.00	0.00	0.00	45.00	0.00	6.52973		-4.26458	11.89668	-3.76627	3.18873		7.05456		-0.52483	-0.02784	-0.00795	 0.29446	 0.01380	-0.09235	 0.07819 -5.68946	 0.82029	-0.72727	 0.95302	-4.39520	2.14463	   
4.00	45.00	0.00	135.00	135.00	0.00	32.59792	-12.33039	51.53499	-17.58639	12.97483	34.59304	-1.99512	-1.90836	 0.43412	 0.81881	 1.11047	-0.88858	 0.65557 -12.07680	 1.01953	-1.25899	 2.06789	-9.41537	22.57158    
4.00	45.00	0.00	135.00	45.00	0.00	41.84981	-34.57888	88.30387	-33.22911	23.93855	44.43443	-2.58462	-1.45932	 0.48794	 0.66630	 1.50316	-2.36515	 1.70387 -15.38875	 2.82571	-2.38358	 3.11580	-10.33381	30.55580    
4.00	45.00	0.00	180.00	135.00	0.00	22.45920	-8.21751	35.31628	-12.07688	9.17983		24.20172	-1.74252	-1.59658	 0.35354	 0.61487	 1.08223	-0.61549	 0.46784 -10.22719	 0.93975	-1.15984	 1.71111	-7.86616	14.02944    
4.00	45.00	0.00	180.00	45.00	0.00	48.14879	-37.12575	95.08902	-35.90083	26.70662	48.76905	-0.62026	-1.88773	 0.66279	 0.80196	 1.80280	-2.89396	 2.15281 -16.59827	 3.04820	-2.53350	 3.44218	-10.92543	36.14606    
4.00	45.00	0.00	45.00	135.00	0.00	138.05799	-57.11800	224.29893	-90.11417	39.67214	116.73891	21.31907	-3.88089	 0.99747	 1.40072	-0.63502	-3.76946	 1.65948 -27.46036	 2.49077	-2.08437	 2.63054	-28.23240	109.40687   
4.00	45.00	0.00	45.00	45.00	0.00	8.45648		-6.68227	16.95100	-5.41007	4.54202		9.40069		-0.94421	-0.05670	 0.02892	 0.35703	 0.16248	-0.19762	 0.16591 -6.66803	 0.98169	-0.86883	 1.20794	-4.83495	3.56926	   
4.00	45.00	0.00	90.00	135.00	0.00	75.14007	-30.23499	121.22468	-44.21585	26.68844	73.46228	 1.67779	-2.76521	 0.68108	 1.27523	 0.60601	-2.02324	 1.22122 -18.71886	 1.46759	-1.60186	 2.75777	-16.50282	58.03981    
4.00	45.00	0.00	90.00	45.00	0.00	19.03492	-17.23880	42.72805	-14.89268	11.69958	22.29614	-3.26122	-0.65361	 0.25224	 0.51287	 0.95860	-0.92717	 0.72838 -10.38832	 1.74255	-1.50768	 2.09647	-6.73235	11.84924    
4.00	45.00	180.00	0.00	0.00	0.00	185.06596	-90.42421	380.46288	-261.81531	87.69985	115.92321	69.14275	-2.16470	-0.53846	-0.59250	-5.34286	-10.71926	 3.59061 -40.33869	 9.80102	-7.08521	-0.30642	-52.66204	131.36948   
4.00	90.00	0.00	0.00	0.00	0.00	5.55519		-4.73839	11.85933	-4.39656	3.35117		6.07555		-0.52036	-0.78345	 0.23952	 0.14762	 1.01174	-0.48028	 0.36608 -5.73892	 1.34626	-1.28448	 1.03739	-3.74098	1.41667	   
4.00	90.00	0.00	0.00	180.00	0.00	11.70570	-5.74486	19.47568	-5.80027	4.83405		12.76460	-1.05890	-0.70078	 0.15167	 0.42005	 0.54991	-0.26279	 0.21902 -8.19268	 0.97088	-0.97642	 1.32815	-6.22569	5.21270	   
4.00	90.00	0.00	0.00	90.00	0.00	 3.43834	 2.85014	0.89233		-0.44400	0.12933		 3.42780	 0.01054	-0.80253	 0.17681	 0.02227	 0.05765	 0.05506	-0.01604 -1.56780	 0.25573	-0.24557	 0.07983	-1.96237	1.45374	   
4.00	90.00	0.00	180.00	90.00	0.00	-3.10192	-3.43552	0.76379		-0.46881	0.12640		-3.01413	-0.08778	 0.74116	-0.16221	 0.01626	 0.02111	 0.06380	-0.01720 -1.47626	 0.24874	-0.19687	 0.07929	-0.68141	-3.78410    
4.00	90.00	0.00	180.00	90.00	180.00	-2.83767	-2.99537	0.45496		-0.34881	0.09414		-2.79508	-0.04260	 0.69302	-0.16261	 0.01164	 0.01163	 0.05706	-0.01540 -1.29018	 0.25235	-0.17687	 0.05805	-0.56348	-3.39898    
4.00	90.00	180.00	0.00	0.00	0.00	 6.50762	-5.63065	13.92361	-4.74148	3.54052		7.09200		-0.58438	-0.85519	 0.26881	 0.15951	 1.12096	-0.52978	 0.39559 -6.24979	 1.35625	-1.33705	 1.12826	-4.09469	1.96518	   
4.00	90.00	180.00	0.00	90.00	0.00	 4.78705	 3.24151	2.39050		-0.88008	0.32653		5.07846		-0.29141	-0.93557	 0.18405	 0.05877	 0.13446	 0.04606	-0.01709 -2.00212	 0.20502	-0.28205	 0.12754	-2.41999	2.30613	   
4.00	90.00	180.00	180.00	90.00	0.00	-3.34975	-3.86561	1.07784		-0.58993	0.15754		-3.22016	-0.12958	 0.78940	-0.16191	 0.02112	 0.05815	 0.07058	-0.01885 -1.66243	 0.24497	-0.21698	 0.10113	-0.76136	-4.12455    
4.00	90.00	30.00	90.00	90.00	30.00	 0.01176	-0.13183	0.30213		-0.21312	0.05260		 0.00978	 0.00198	-0.00819	-0.00188	 0.01215	 0.00576	 0.03076	-0.00759 -1.19292	 0.22227	-0.15470	 0.04508	-1.04972	-1.03750    
5.00	135.00	0.00	0.00	0.00	0.00	 5.92439	 2.69859	4.11431		-1.44196	0.81431		6.18525		-0.26086	-0.87963	 0.18486	-0.11452	 0.64240	-0.10601	 0.05987 -2.55909	 0.60749	-0.65467	 0.41343	-2.20816	3.51852	   
5.00	135.00	0.00	0.00	45.00	0.00	 4.77973	 3.65766	1.66180		-0.75935	0.29760		4.85771		-0.07798	-0.58284	 0.09212	-0.06905	 0.34259	 0.01817	-0.00712 -1.54934	 0.43811	-0.44572	 0.18038	-1.48178	3.19702	   
5.00	45.00	0.00	0.00	0.00	0.00	1.85753		-5.50087	8.41345		-2.22139	1.54692		2.23811		-0.38058	-0.10170	 0.09243	-0.00450	 1.53604	-0.25853	 0.18003 -3.75704	 0.52968	-0.74780	 0.61890	-1.34678	-0.05495    
5.00	45.00	0.00	0.00	135.00	0.00	10.68317	-1.36713	13.63616	-3.32359	2.54177		11.48720	-0.80403	-1.08630	 0.31210	 0.25488	 0.72088	-0.23770	 0.18178 -4.45287	 0.06032	-0.41635	 0.68860	-3.69083	6.70854	   
5.00	45.00	0.00	0.00	180.00	0.00	12.08447	-1.50993	15.38961	-3.46008	2.70868		13.12829	-1.04382	-1.22251	 0.31536	 0.24318	 0.90148	-0.29456	 0.23059 -5.46667	 0.08431	-0.52767	 0.79748	-4.57456	7.14547	   
5.00	45.00	0.00	0.00	45.00	0.00	-0.23878	-0.75147	0.71462		-0.29098	0.12518		-0.20266	-0.03612	 0.11405	-0.02680	 0.00963	 0.03776	 0.01685	-0.00725 -1.14913	 0.15748	-0.16120	 0.08086	-0.91932	-1.16654    
5.00	45.00	0.00	135.00	135.00	0.00	3.54646		-0.00764	4.20761		-1.08633	0.70965		 3.82329	-0.27683	-0.44007	 0.11482	 0.08378	 0.29059	-0.04702	 0.03071 -2.43378	 0.08359	-0.27380	 0.27274	-2.20040	1.22802	   
5.00	45.00	0.00	135.00	45.00	0.00	-1.01991	-3.67392	3.28291		-0.96046	0.53768		-0.81378	-0.20613	 0.25869	-0.01945	 0.00103	 0.39699	-0.04357	 0.02439 -2.12881	 0.29211	-0.36148	 0.26149	-1.17784	-2.33852    
5.00	45.00	0.00	180.00	135.00	0.00	 2.65911	 0.05679	3.11832		-0.84631	0.52788		 2.85669	-0.19757	-0.34929	 0.08722	 0.06051	 0.23586	-0.02920	 0.01821 -2.16188	 0.09651	-0.25354	 0.22038	-1.97646	0.58390	   
5.00	45.00	0.00	180.00	45.00	0.00	-0.94957	-3.92953	3.59154		-1.03053	0.61710		-0.75141	-0.19816	 0.31112	-0.03066	 0.00901	 0.44284	-0.05698	 0.03412 -2.27827	 0.31073	-0.38542	 0.28714	-1.19719	-2.30594    
5.00	45.00	0.00	45.00	135.00	0.00	9.46384		-1.04134	12.04290	-2.97967	2.23279		10.25469	-0.79085	-0.98190	 0.27733	 0.23335	 0.63943	-0.20016	 0.14999 -4.10824	 0.05757	-0.39142	 0.61339	-3.45494	5.75319	   
5.00	45.00	0.00	90.00	135.00	0.00	6.30580		-0.39022	7.78635		-1.92491	1.36776		 6.83898	-0.53318	-0.69846	 0.19229	 0.15689	 0.45441	-0.11168	 0.07936 -3.22048	 0.06037	-0.32914	 0.42938	-2.80698	3.31875	   
5.00	45.00	0.00	90.00	45.00	0.00	-0.97251	-2.47016	1.95433		-0.63798	0.31327		-0.84054	-0.13196	 0.20442	-0.01965	 0.00337	 0.21530	-0.00575	 0.00282 -1.68358	 0.22987	-0.27166	 0.17309	-1.08055	-2.12427    
5.00	45.00	180.00	0.00	0.00	0.00	5.35726		-11.90860	22.16385	-6.74063	4.29762		 7.81224	-2.45498	-0.36995	 0.18769	 0.12911	 1.67545	-0.60386	 0.38500 -5.96392	 0.82589	-1.12628	 1.17479	-2.95139	1.67119	   
5.00	90.00	0.00	0.00	0.00	0.00	-0.04677	-0.21662	 0.42464	-0.29872	0.06793		-0.02276	-0.02400	-0.09550	 0.03168	-0.00909	 0.08472	 0.00703	-0.00160 -0.97877	 0.23528	-0.23008	 0.05753	-0.86730	-0.94557    
5.00	90.00	0.00	0.00	180.00	0.00	0.29316		-0.15304	 0.64828	-0.28357	0.11180		 0.32346	-0.03030	-0.02992	 0.00266	 0.01141	 0.04440	 0.02132	-0.00841 -1.33155	 0.14937	-0.16287	 0.06865	-1.21856	-0.94179    
5.00	90.00	0.00	0.00	90.00	0.00	1.64524		 1.70139	 0.02166	-0.08576	0.00277		 1.64006	 0.00518	-0.39852	 0.08687	 0.00042	 0.00243	 0.01840	-0.00059 -0.36168	 0.07371	-0.05771	 0.00337	-0.63243	1.01194	   
5.00	90.00	0.00	180.00	90.00	0.00	-1.79320	-1.72299	 0.02034	-0.08883	0.00260		-1.78888	-0.00432	 0.40110	-0.08839	 0.00040	 0.00125	 0.01820	-0.00053 -0.34545	 0.07032	-0.04713	 0.00340	 0.01313	-1.78004    
5.00	90.00	0.00	180.00	90.00	180.00	-1.67247	-1.60987	 0.01185	-0.07464	0.00207		-1.67058	-0.00189	 0.37986	-0.08617	 0.00035	 0.00009	 0.01644	-0.00046 -0.31672	 0.07160	-0.04443	 0.00238	 0.02277	-1.64953    
5.00	90.00	180.00	0.00	0.00	0.00	-0.23197	-0.46408	 0.53190	-0.34261	0.07446		-0.20033	-0.03164	-0.09632	 0.04043	-0.01154	 0.10995	 0.00627	-0.00136 -1.07862	 0.23409	-0.24538	 0.06588	-0.93455	-1.20857    
5.00	90.00	180.00	0.00	90.00	0.00	1.81580		 1.85513	 0.05879	-0.11353	0.00600		 1.80639	 0.00941	-0.42698	 0.08880	 0.00105	 0.00767	 0.01998	-0.00106 -0.41750	 0.06625	-0.06415	 0.00565	-0.71738	1.09551	   
5.00	90.00	180.00	180.00	90.00	0.00	-1.91028	-1.83227	 0.02933	-0.10298	0.00311		-1.90280	-0.00748	 0.42234	-0.09072	 0.00046	 0.00246	 0.01996	-0.00060 -0.37433	 0.06902	-0.04983	 0.00441	 0.00347	-1.90710    
5.00	90.00	30.00	90.00	90.00	30.00	-0.04427	-0.01063	 0.00764	-0.04433	0.00132		-0.04599	 0.00172	 0.00025	-0.00044	 0.00040	 0.00017	 0.00860	-0.00026 -0.30755	 0.06471	-0.03816	 0.00219	-0.27016	-0.31436    
6.00	135.00	0.00	0.00	0.00	0.00	2.19385		 2.23325	 0.14241	-0.20125	0.01512		 2.18954	 0.00432	-0.29678	 0.03633	-0.01295	 0.04788	 0.02092	-0.00157 -0.46621	 0.12863	-0.13733	 0.02156	-0.64272	1.53433	   
6.00	135.00	0.00	0.00	45.00	0.00	2.17804		 2.25669	 0.04753	-0.13916	0.00564		 2.17069	 0.00734	-0.28462	 0.03618	-0.00436	 0.01601	 0.02410	-0.00098 -0.30994	 0.09924	-0.09668	 0.00814	-0.50733	1.66513	   
6.00	180.00	0.00	0.00	0.00	0.00	 4.40399	 3.97992	 0.84367	-0.49672	0.08347		 4.41035	-0.00637	-0.39268	 0.02888	-0.08418	 0.30408	 0.01777	-0.00299 -1.01591	 0.28569	-0.38112	 0.09861	-1.03025	3.26213	   
6.00	45.00	0.00	0.00	0.00	0.00	-1.78456	-1.87902	 0.29724	-0.21433	0.02959		-1.76652	-0.01804	 0.25783	-0.04530	-0.01038	 0.08212	 0.01026	-0.00142 -0.65380	 0.11200	-0.15344	 0.03327	-0.33500	-2.15343    
6.00	45.00	0.00	0.00	135.00	0.00	 1.60930	 1.28857	 0.44456	-0.17113	0.05523		 1.61723	-0.00793	-0.37334	 0.09424	 0.00605	 0.05565	 0.00675	-0.00218 -0.71721	 0.01672	-0.08388	 0.03764	-0.93968	0.64974	   
6.00	45.00	0.00	0.00	180.00	0.00	 1.50342	 1.16811	 0.45392	-0.16906	0.05333		 1.50631	-0.00289	-0.35706	 0.08928	 0.00446	 0.06481	 0.00536	-0.00169 -0.87321	 0.02773	-0.10435	 0.04012	-1.07810	0.39886	   
6.00	45.00	0.00	0.00	45.00	0.00	-0.45736	-0.42875	 0.03024	-0.06128	0.00435		-0.45544	-0.00191	 0.09693	-0.02114	-0.00014	 0.00315	 0.00871	-0.00062 -0.28090	 0.04855	-0.04334	 0.00481	-0.18276	-0.64134    
6.00	45.00	0.00	135.00	135.00	0.00	 0.73605	 0.64015	 0.18894	-0.10426	0.02313		 0.74796	-0.01190	-0.16904	 0.03762	 0.00180	 0.02268	 0.00799	-0.00177 -0.50234	 0.02747	-0.06326	 0.01802	-0.61174	0.11523	   
6.00	45.00	0.00	135.00	45.00	0.00	-1.59747	-1.57219	 0.09568	-0.12415	0.01108		-1.58958	-0.00789	 0.28284	-0.05760	-0.00235	 0.02126	 0.01399	-0.00125 -0.40119	 0.06867	-0.07528	 0.01203	-0.13075	-1.73636    
6.00	45.00	0.00	180.00	135.00	0.00	 0.58927	 0.52358	 0.15350	-0.09346	0.01906		 0.60269	-0.01342	-0.13428	 0.02792	 0.00119	 0.01806	 0.00784	-0.00160 -0.46926	 0.03013	-0.05999	 0.01525	-0.55708	0.02454	   
6.00	45.00	0.00	180.00	45.00	0.00	-1.75183	-1.72988	 0.10449	-0.13061	0.01243		-1.74357	-0.00826	 0.31901	-0.06636	-0.00236	 0.02360	 0.01502	-0.00143 -0.41994	 0.07134	-0.07936	 0.01318	-0.11819	-1.87914    
6.00	45.00	0.00	45.00	135.00	0.00	 1.46600	 1.18464	 0.40166	-0.16102	0.04971		 1.47499	-0.00899	-0.34029	 0.08509	 0.00541	 0.04970	 0.00709	-0.00219 -0.67935	 0.01805	-0.08029	 0.03412	-0.88468	0.56335	   
6.00	45.00	0.00	45.00	45.00	0.00	-0.66316	-0.63211	 0.03815	-0.07166	0.00518		-0.66045	-0.00272	 0.12771	-0.02661	-0.00042	 0.00540	 0.00959	-0.00069 -0.30027	 0.05174	-0.04848	 0.00580	-0.17421	-0.83939    
6.00	45.00	0.00	90.00	135.00	0.00	 1.10212	 0.91813	 0.29126	-0.13269	0.03549		 1.11219	-0.01007	-0.25528	 0.06161	 0.00359	 0.03563	 0.00783	-0.00209 -0.58848	 0.02192	-0.07160	 0.02565	-0.74801	0.34088	   
