Cube file from ASE, written on Wed Mar 18 13:39:23 2020
OUTER LOOP: X, MIDDLE LOOP: Y, INNER LOOP: Z
    6    0.000000    0.000000    0.000000
    2   33.070207    0.000000    0.000000
    2    0.000000   33.070207    0.000000
    2    0.000000    0.000000   33.070207
    8    0.000000   28.386920   32.757872   33.070207
    1    0.000000   30.198829   32.786734   33.070207
    1    0.000000   27.913754   34.504463   33.070207
    8    0.000000   37.106971   32.757872   33.070207
    1    0.000000   37.769910   31.871319   31.637498
    1    0.000000   37.769910   31.871319   34.502917
1.000000e+00
1.000000e+00
1.000000e+00
1.000000e+00
1.000000e+00
1.000000e+00
1.000000e+00
1.000000e+00