Cube file from ASE, written on Thu Jun 11 14:07:04 2020
OUTER LOOP: X, MIDDLE LOOP: Y, INNER LOOP: Z
    6    0.000000    0.000000    0.000000
    2   33.070207    0.000000    0.000000
    2    0.000000   33.070207    0.000000
    2    0.000000    0.000000   33.070207
    8    0.000000   28.906595   32.757872   33.070207
    1    0.000000   30.719483   32.787963   33.068866
    1    0.000000   28.434617   34.504404   33.070442
    8    0.000000   36.558951   32.757872   33.070207
    1    0.000000   37.208166   31.861202   31.637185
    1    0.000000   37.207177   31.861467   34.503919
1.000000e+00
1.000000e+00
1.000000e+00
1.000000e+00
1.000000e+00
1.000000e+00
1.000000e+00
1.000000e+00