Cube file from ASE, written on Thu Jun 11 14:07:04 2020
OUTER LOOP: X, MIDDLE LOOP: Y, INNER LOOP: Z
    6    0.000000    0.000000    0.000000
    2   33.070207    0.000000    0.000000
    2    0.000000   33.070207    0.000000
    2    0.000000    0.000000   33.070207
    8    0.000000   27.890867   32.757872   33.070207
    1    0.000000   29.702051   32.786192   33.068887
    1    0.000000   27.417380   34.504640   33.070446
    8    0.000000   37.574679   32.757872   33.070207
    1    0.000000   38.225597   31.861122   31.638619
    1    0.000000   38.224588   31.861407   34.502458
1.000000e+00
1.000000e+00
1.000000e+00
1.000000e+00
1.000000e+00
1.000000e+00
1.000000e+00
1.000000e+00