Cube file from ASE, written on Wed Mar 18 13:39:23 2020
OUTER LOOP: X, MIDDLE LOOP: Y, INNER LOOP: Z
    6    0.000000    0.000000    0.000000
    2   33.070207    0.000000    0.000000
    2    0.000000   33.070207    0.000000
    2    0.000000    0.000000   33.070207
    8    0.000000   29.331783   32.757872   33.070207
    1    0.000000   31.146889   32.788701   33.070207
    1    0.000000   28.860488   34.503802   33.070207
    8    0.000000   36.162108   32.757872   33.070207
    1    0.000000   36.821827   31.871704   31.634400
    1    0.000000   36.821827   31.871704   34.506014
1.000000e+00
1.000000e+00
1.000000e+00
1.000000e+00
1.000000e+00
1.000000e+00
1.000000e+00
1.000000e+00