Cube file from ASE, written on Wed Mar 18 13:39:23 2020
OUTER LOOP: X, MIDDLE LOOP: Y, INNER LOOP: Z
    6    0.000000    0.000000    0.000000
    2   33.070207    0.000000    0.000000
    2    0.000000   33.070207    0.000000
    2    0.000000    0.000000   33.070207
    8    0.000000   30.347511   32.757872   33.070207
    1    0.000000   32.178086   32.798336   33.070207
    1    0.000000   29.872659   34.497479   33.070207
    8    0.000000   35.146381   32.757872   33.070207
    1    0.000000   35.855397   31.927505   31.619793
    1    0.000000   35.855397   31.927505   34.520622
1.000000e+00
1.000000e+00
1.000000e+00
1.000000e+00
1.000000e+00
1.000000e+00
1.000000e+00
1.000000e+00