Cube file from ASE, written on Thu Jun 11 14:07:04 2020
OUTER LOOP: X, MIDDLE LOOP: Y, INNER LOOP: Z
    6    0.000000    0.000000    0.000000
    2   33.070207    0.000000    0.000000
    2    0.000000   33.070207    0.000000
    2    0.000000    0.000000   33.070207
    8    0.000000   30.229403   32.757872   33.070207
    1    0.000000   32.055087   32.791136   33.068106
    1    0.000000   29.765545   34.501710   33.070399
    8    0.000000   35.236143   32.757872   33.070207
    1    0.000000   35.879135   31.866056   31.626932
    1    0.000000   35.878555   31.866183   34.514279
1.000000e+00
1.000000e+00
1.000000e+00
1.000000e+00
1.000000e+00
1.000000e+00
1.000000e+00
1.000000e+00