Cube file from ASE, written on Thu Jun 11 14:07:04 2020
OUTER LOOP: X, MIDDLE LOOP: Y, INNER LOOP: Z
    6    0.000000    0.000000    0.000000
    2   33.070207    0.000000    0.000000
    2    0.000000   33.070207    0.000000
    2    0.000000    0.000000   33.070207
    8    0.000000   29.898701   32.757872   33.070207
    1    0.000000   31.718532   32.790759   33.068559
    1    0.000000   29.431198   34.502950   33.070421
    8    0.000000   35.566845   32.757872   33.070207
    1    0.000000   36.210606   31.863768   31.630639
    1    0.000000   36.209786   31.863948   34.510551
1.000000e+00
1.000000e+00
1.000000e+00
1.000000e+00
1.000000e+00
1.000000e+00
1.000000e+00
1.000000e+00