Cube file from ASE, written on Thu Jun 11 14:07:04 2020
OUTER LOOP: X, MIDDLE LOOP: Y, INNER LOOP: Z
    6    0.000000    0.000000    0.000000
    2   33.070207    0.000000    0.000000
    2    0.000000   33.070207    0.000000
    2    0.000000    0.000000   33.070207
    8    0.000000   29.355405   32.757872   33.070207
    1    0.000000   31.170224   32.789195   33.068813
    1    0.000000   28.884795   34.504029   33.070437
    8    0.000000   36.110141   32.757872   33.070207
    1    0.000000   36.757255   31.861518   31.635313
    1    0.000000   36.756300   31.861758   34.505821
1.000000e+00
1.000000e+00
1.000000e+00
1.000000e+00
1.000000e+00
1.000000e+00
1.000000e+00
1.000000e+00