Cube file from ASE, written on Wed Mar 18 13:39:23 2020
OUTER LOOP: X, MIDDLE LOOP: Y, INNER LOOP: Z
    6    0.000000    0.000000    0.000000
    2   33.070207    0.000000    0.000000
    2    0.000000   33.070207    0.000000
    2    0.000000    0.000000   33.070207
    8    0.000000   30.205781   32.757872   33.070207
    1    0.000000   32.033054   32.789553   33.070207
    1    0.000000   29.740801   34.501277   33.070207
    8    0.000000   35.288110   32.757872   33.070207
    1    0.000000   35.942606   31.877278   31.623872
    1    0.000000   35.942606   31.877278   34.516542
1.000000e+00
1.000000e+00
1.000000e+00
1.000000e+00
1.000000e+00
1.000000e+00
1.000000e+00
1.000000e+00