Cube file from ASE, written on Wed Mar 18 13:39:23 2020
OUTER LOOP: X, MIDDLE LOOP: Y, INNER LOOP: Z
    6    0.000000    0.000000    0.000000
    2   33.070207    0.000000    0.000000
    2    0.000000   33.070207    0.000000
    2    0.000000    0.000000   33.070207
    8    0.000000   29.591620   32.757872   33.070207
    1    0.000000   31.408816   32.789437   33.070207
    1    0.000000   29.121488   34.503380   33.070207
    8    0.000000   35.902271   32.757872   33.070207
    1    0.000000   36.559874   31.872530   31.632064
    1    0.000000   36.559874   31.872530   34.508350
1.000000e+00
1.000000e+00
1.000000e+00
1.000000e+00
1.000000e+00
1.000000e+00
1.000000e+00
1.000000e+00