Cube file from ASE, written on Wed Mar 18 13:39:23 2020
OUTER LOOP: X, MIDDLE LOOP: Y, INNER LOOP: Z
    6    0.000000    0.000000    0.000000
    2   33.070207    0.000000    0.000000
    2    0.000000   33.070207    0.000000
    2    0.000000    0.000000   33.070207
    8    0.000000   29.662485   32.757872   33.070207
    1    0.000000   31.480422   32.789592   33.070207
    1    0.000000   29.192705   34.503212   33.070207
    8    0.000000   35.831406   32.757872   33.070207
    1    0.000000   36.488496   31.872855   31.631322
    1    0.000000   36.488496   31.872855   34.509093
1.000000e+00
1.000000e+00
1.000000e+00
1.000000e+00
1.000000e+00
1.000000e+00
1.000000e+00
1.000000e+00