Cube file from ASE, written on Wed Mar 18 13:39:23 2020
OUTER LOOP: X, MIDDLE LOOP: Y, INNER LOOP: Z
    6    0.000000    0.000000    0.000000
    2   33.070207    0.000000    0.000000
    2    0.000000   33.070207    0.000000
    2    0.000000    0.000000   33.070207
    8    0.000000   27.843624   32.757872   33.070207
    1    0.000000   29.654969   32.786125   33.070207
    1    0.000000   27.369983   34.504535   33.070207
    8    0.000000   37.650268   32.757872   33.070207
    1    0.000000   38.313728   31.871265   31.637989
    1    0.000000   38.313728   31.871265   34.502426
1.000000e+00
1.000000e+00
1.000000e+00
1.000000e+00
1.000000e+00
1.000000e+00
1.000000e+00
1.000000e+00