Cube file from ASE, written on Wed Mar 18 13:39:23 2020
OUTER LOOP: X, MIDDLE LOOP: Y, INNER LOOP: Z
    6    0.000000    0.000000    0.000000
    2   33.070207    0.000000    0.000000
    2    0.000000   33.070207    0.000000
    2    0.000000    0.000000   33.070207
    8    0.000000   28.434163   32.757872   33.070207
    1    0.000000   30.246294   32.786923   33.070207
    1    0.000000   27.961150   34.504423   33.070207
    8    0.000000   37.059728   32.757872   33.070207
    1    0.000000   37.722479   31.871336   31.637309
    1    0.000000   37.722479   31.871336   34.503105
1.000000e+00
1.000000e+00
1.000000e+00
1.000000e+00
1.000000e+00
1.000000e+00
1.000000e+00
1.000000e+00