Cube file from ASE, written on Thu Jun 11 14:07:04 2020
OUTER LOOP: X, MIDDLE LOOP: Y, INNER LOOP: Z
    6    0.000000    0.000000    0.000000
    2   33.070207    0.000000    0.000000
    2    0.000000   33.070207    0.000000
    2    0.000000    0.000000   33.070207
    8    0.000000   28.339677   32.757872   33.070207
    1    0.000000   30.151350   32.786854   33.068883
    1    0.000000   27.866721   34.504608   33.070445
    8    0.000000   37.125869   32.757872   33.070207
    1    0.000000   37.776280   31.861139   31.638217
    1    0.000000   37.775277   31.861418   34.502867
1.000000e+00
1.000000e+00
1.000000e+00
1.000000e+00
1.000000e+00
1.000000e+00
1.000000e+00
1.000000e+00