Cube file from ASE, written on Wed Mar 18 13:39:23 2020
OUTER LOOP: X, MIDDLE LOOP: Y, INNER LOOP: Z
    6    0.000000    0.000000    0.000000
    2   33.070207    0.000000    0.000000
    2    0.000000   33.070207    0.000000
    2    0.000000    0.000000   33.070207
    8    0.000000   29.426269   32.757872   33.070207
    1    0.000000   31.242036   32.788990   33.070207
    1    0.000000   28.955370   34.503678   33.070207
    8    0.000000   36.067622   32.757872   33.070207
    1    0.000000   36.726554   31.871928   31.633632
    1    0.000000   36.726554   31.871928   34.506783
1.000000e+00
1.000000e+00
1.000000e+00
1.000000e+00
1.000000e+00
1.000000e+00
1.000000e+00
1.000000e+00