GFORTRAN module version '10' created from src/mdutil.f90
MD5:876c0ca28a81e1068c2b97448e96a462 -- If you edit this, you'll get what you deserve.

(() () () () () () () () () () () () () () () () () () () () () () ()
() () () ())

()

()

()

()

()

(2 'cross' 'mdutil' '' 1 ((PROCEDURE UNKNOWN-INTENT MODULE-PROC DECL
UNKNOWN 0 0 SUBROUTINE) (UNKNOWN 0 0 0 0 UNKNOWN ()) 3 0 (4 5 6) () 0 ()
() () 0 0)
7 'dot' 'mdutil' '' 1 ((PROCEDURE UNKNOWN-INTENT MODULE-PROC DECL
UNKNOWN 0 0 FUNCTION) (REAL 8 0 0 0 REAL ()) 8 0 (9 10) () 7 () () () 0
0)
11 'inv6' 'mdutil' '' 1 ((PROCEDURE UNKNOWN-INTENT MODULE-PROC DECL
UNKNOWN 0 0 SUBROUTINE) (UNKNOWN 0 0 0 0 UNKNOWN ()) 12 0 (13 14 15 16
17) () 0 () () () 0 0)
4 'r1' '' '' 3 ((VARIABLE UNKNOWN-INTENT UNKNOWN-PROC UNKNOWN UNKNOWN 0
0 DIMENSION DUMMY) (REAL 8 0 0 0 REAL ()) 0 0 () (1 0 EXPLICIT (
CONSTANT (INTEGER 4 0 0 0 INTEGER ()) 0 '1') (CONSTANT (INTEGER 4 0 0 0
INTEGER ()) 0 '3')) 0 () () () 0 0)
5 'r2' '' '' 3 ((VARIABLE UNKNOWN-INTENT UNKNOWN-PROC UNKNOWN UNKNOWN 0
0 DIMENSION DUMMY) (REAL 8 0 0 0 REAL ()) 0 0 () (1 0 EXPLICIT (
CONSTANT (INTEGER 4 0 0 0 INTEGER ()) 0 '1') (CONSTANT (INTEGER 4 0 0 0
INTEGER ()) 0 '3')) 0 () () () 0 0)
6 'r3' '' '' 3 ((VARIABLE UNKNOWN-INTENT UNKNOWN-PROC UNKNOWN UNKNOWN 0
0 DIMENSION DUMMY) (REAL 8 0 0 0 REAL ()) 0 0 () (1 0 EXPLICIT (
CONSTANT (INTEGER 4 0 0 0 INTEGER ()) 0 '1') (CONSTANT (INTEGER 4 0 0 0
INTEGER ()) 0 '3')) 0 () () () 0 0)
9 'r1' '' '' 8 ((VARIABLE UNKNOWN-INTENT UNKNOWN-PROC UNKNOWN UNKNOWN 0
0 DIMENSION DUMMY) (REAL 8 0 0 0 REAL ()) 0 0 () (1 0 EXPLICIT (
CONSTANT (INTEGER 4 0 0 0 INTEGER ()) 0 '1') (CONSTANT (INTEGER 4 0 0 0
INTEGER ()) 0 '3')) 0 () () () 0 0)
10 'r2' '' '' 8 ((VARIABLE UNKNOWN-INTENT UNKNOWN-PROC UNKNOWN UNKNOWN 0
0 DIMENSION DUMMY) (REAL 8 0 0 0 REAL ()) 0 0 () (1 0 EXPLICIT (
CONSTANT (INTEGER 4 0 0 0 INTEGER ()) 0 '1') (CONSTANT (INTEGER 4 0 0 0
INTEGER ()) 0 '3')) 0 () () () 0 0)
13 'r1' '' '' 12 ((VARIABLE UNKNOWN-INTENT UNKNOWN-PROC UNKNOWN UNKNOWN
0 0 DIMENSION DUMMY) (REAL 8 0 0 0 REAL ()) 0 0 () (1 0 EXPLICIT (
CONSTANT (INTEGER 4 0 0 0 INTEGER ()) 0 '1') (CONSTANT (INTEGER 4 0 0 0
INTEGER ()) 0 '3')) 0 () () () 0 0)
14 'r2' '' '' 12 ((VARIABLE UNKNOWN-INTENT UNKNOWN-PROC UNKNOWN UNKNOWN
0 0 DIMENSION DUMMY) (REAL 8 0 0 0 REAL ()) 0 0 () (1 0 EXPLICIT (
CONSTANT (INTEGER 4 0 0 0 INTEGER ()) 0 '1') (CONSTANT (INTEGER 4 0 0 0
INTEGER ()) 0 '3')) 0 () () () 0 0)
15 'r3' '' '' 12 ((VARIABLE UNKNOWN-INTENT UNKNOWN-PROC UNKNOWN UNKNOWN
0 0 DIMENSION DUMMY) (REAL 8 0 0 0 REAL ()) 0 0 () (1 0 EXPLICIT (
CONSTANT (INTEGER 4 0 0 0 INTEGER ()) 0 '1') (CONSTANT (INTEGER 4 0 0 0
INTEGER ()) 0 '3')) 0 () () () 0 0)
16 'y' '' '' 12 ((VARIABLE UNKNOWN-INTENT UNKNOWN-PROC UNKNOWN UNKNOWN 0
0 DIMENSION DUMMY) (REAL 8 0 0 0 REAL ()) 0 0 () (2 0 EXPLICIT (
CONSTANT (INTEGER 4 0 0 0 INTEGER ()) 0 '1') (CONSTANT (INTEGER 4 0 0 0
INTEGER ()) 0 '6') (CONSTANT (INTEGER 4 0 0 0 INTEGER ()) 0 '1') (
CONSTANT (INTEGER 4 0 0 0 INTEGER ()) 0 '6')) 0 () () () 0 0)
17 'flag' '' '' 12 ((VARIABLE UNKNOWN-INTENT UNKNOWN-PROC UNKNOWN
UNKNOWN 0 0 DUMMY) (INTEGER 4 0 0 0 INTEGER ()) 0 0 () () 0 () () () 0 0)
)

('cross' 0 2 'dot' 0 7 'inv6' 0 11)
