GFORTRAN module version '10' created from src/multipole_parameters.f90
MD5:e7170f8502447135766ea7d1b5e5bbae -- If you edit this, you'll get what you deserve.

(() () () () () () () () () () () () () () () () () () () () () () ()
() () () ())

()

()

()

()

()

(2 'd0' 'multipole_parameters' '' 1 ((PARAMETER UNKNOWN-INTENT
UNKNOWN-PROC UNKNOWN IMPLICIT-SAVE 0 0 DIMENSION) (REAL 8 0 0 0 REAL ())
0 0 () (ARRAY (REAL 8 0 0 0 REAL ()) 1 (((CONSTANT (REAL 8 0 0 0 REAL ())
0 '0.00000000000000@0') ()) ((CONSTANT (REAL 8 0 0 0 REAL ()) 0
'0.00000000000000@0') ()) ((CONSTANT (REAL 8 0 0 0 REAL ()) 0
'-0.1dae1ec70ee4e6@1') ())) ('3')) (1 0 EXPLICIT (CONSTANT (INTEGER 4 0
0 0 INTEGER ()) 0 '1') (CONSTANT (INTEGER 4 0 0 0 INTEGER ()) 0 '3')) 0
() () () 0 0)
3 'h0' 'multipole_parameters' '' 1 ((PARAMETER UNKNOWN-INTENT
UNKNOWN-PROC UNKNOWN IMPLICIT-SAVE 0 0 DIMENSION) (REAL 8 0 0 0 REAL ())
0 0 () (ARRAY (REAL 8 0 0 0 REAL ()) 4 (((CONSTANT (REAL 8 0 0 0 REAL ())
0 '-0.5b821011185214@0') ()) ((CONSTANT (REAL 8 0 0 0 REAL ()) 0
'0.00000000000000@0') ()) ((CONSTANT (REAL 8 0 0 0 REAL ()) 0
'0.00000000000000@0') ()) ((CONSTANT (REAL 8 0 0 0 REAL ()) 0
'0.00000000000000@0') ()) ((CONSTANT (REAL 8 0 0 0 REAL ()) 0
'-0.146619b71556a1@1') ()) ((CONSTANT (REAL 8 0 0 0 REAL ()) 0
'0.00000000000000@0') ()) ((CONSTANT (REAL 8 0 0 0 REAL ()) 0
'0.00000000000000@0') ()) ((CONSTANT (REAL 8 0 0 0 REAL ()) 0
'0.00000000000000@0') ()) ((CONSTANT (REAL 8 0 0 0 REAL ()) 0
'0.1a1e3ab826dbc1@1') ()) ((CONSTANT (REAL 8 0 0 0 REAL ()) 0
'0.00000000000000@0') ()) ((CONSTANT (REAL 8 0 0 0 REAL ()) 0
'-0.146619b71556a1@1') ()) ((CONSTANT (REAL 8 0 0 0 REAL ()) 0
'0.00000000000000@0') ()) ((CONSTANT (REAL 8 0 0 0 REAL ()) 0
'-0.146619b71556a1@1') ()) ((CONSTANT (REAL 8 0 0 0 REAL ()) 0
'0.00000000000000@0') ()) ((CONSTANT (REAL 8 0 0 0 REAL ()) 0
'0.00000000000000@0') ()) ((CONSTANT (REAL 8 0 0 0 REAL ()) 0
'0.00000000000000@0') ()) ((CONSTANT (REAL 8 0 0 0 REAL ()) 0
'0.00000000000000@0') ()) ((CONSTANT (REAL 8 0 0 0 REAL ()) 0
'0.00000000000000@0') ()) ((CONSTANT (REAL 8 0 0 0 REAL ()) 0
'0.00000000000000@0') ()) ((CONSTANT (REAL 8 0 0 0 REAL ()) 0
'0.00000000000000@0') ()) ((CONSTANT (REAL 8 0 0 0 REAL ()) 0
'0.1a1e3ab826dbc1@1') ()) ((CONSTANT (REAL 8 0 0 0 REAL ()) 0
'0.00000000000000@0') ()) ((CONSTANT (REAL 8 0 0 0 REAL ()) 0
'0.00000000000000@0') ()) ((CONSTANT (REAL 8 0 0 0 REAL ()) 0
'0.00000000000000@0') ()) ((CONSTANT (REAL 8 0 0 0 REAL ()) 0
'0.1a1e3ab826dbc1@1') ()) ((CONSTANT (REAL 8 0 0 0 REAL ()) 0
'0.00000000000000@0') ()) ((CONSTANT (REAL 8 0 0 0 REAL ()) 0
'0.00000000000000@0') ()) ((CONSTANT (REAL 8 0 0 0 REAL ()) 0
'0.00000000000000@0') ()) ((CONSTANT (REAL 8 0 0 0 REAL ()) 0
'-0.146619b71556a1@1') ()) ((CONSTANT (REAL 8 0 0 0 REAL ()) 0
'0.00000000000000@0') ()) ((CONSTANT (REAL 8 0 0 0 REAL ()) 0
'-0.146619b71556a1@1') ()) ((CONSTANT (REAL 8 0 0 0 REAL ()) 0
'0.00000000000000@0') ()) ((CONSTANT (REAL 8 0 0 0 REAL ()) 0
'0.00000000000000@0') ()) ((CONSTANT (REAL 8 0 0 0 REAL ()) 0
'0.00000000000000@0') ()) ((CONSTANT (REAL 8 0 0 0 REAL ()) 0
'0.00000000000000@0') ()) ((CONSTANT (REAL 8 0 0 0 REAL ()) 0
'0.00000000000000@0') ()) ((CONSTANT (REAL 8 0 0 0 REAL ()) 0
'-0.146619b71556a1@1') ()) ((CONSTANT (REAL 8 0 0 0 REAL ()) 0
'0.00000000000000@0') ()) ((CONSTANT (REAL 8 0 0 0 REAL ()) 0
'0.00000000000000@0') ()) ((CONSTANT (REAL 8 0 0 0 REAL ()) 0
'0.00000000000000@0') ()) ((CONSTANT (REAL 8 0 0 0 REAL ()) 0
'0.18b2c8fe2115ca@1') ()) ((CONSTANT (REAL 8 0 0 0 REAL ()) 0
'0.00000000000000@0') ()) ((CONSTANT (REAL 8 0 0 0 REAL ()) 0
'0.00000000000000@0') ()) ((CONSTANT (REAL 8 0 0 0 REAL ()) 0
'0.00000000000000@0') ()) ((CONSTANT (REAL 8 0 0 0 REAL ()) 0
'-0.44caf470bbf290@0') ()) ((CONSTANT (REAL 8 0 0 0 REAL ()) 0
'0.00000000000000@0') ()) ((CONSTANT (REAL 8 0 0 0 REAL ()) 0
'0.00000000000000@0') ()) ((CONSTANT (REAL 8 0 0 0 REAL ()) 0
'0.00000000000000@0') ()) ((CONSTANT (REAL 8 0 0 0 REAL ()) 0
'0.00000000000000@0') ()) ((CONSTANT (REAL 8 0 0 0 REAL ()) 0
'0.00000000000000@0') ()) ((CONSTANT (REAL 8 0 0 0 REAL ()) 0
'-0.44caf470bbf290@0') ()) ((CONSTANT (REAL 8 0 0 0 REAL ()) 0
'0.00000000000000@0') ()) ((CONSTANT (REAL 8 0 0 0 REAL ()) 0
'-0.44caf470bbf290@0') ()) ((CONSTANT (REAL 8 0 0 0 REAL ()) 0
'0.00000000000000@0') ()) ((CONSTANT (REAL 8 0 0 0 REAL ()) 0
'0.00000000000000@0') ()) ((CONSTANT (REAL 8 0 0 0 REAL ()) 0
'0.00000000000000@0') ()) ((CONSTANT (REAL 8 0 0 0 REAL ()) 0
'0.1a1e3ab826dbc1@1') ()) ((CONSTANT (REAL 8 0 0 0 REAL ()) 0
'0.00000000000000@0') ()) ((CONSTANT (REAL 8 0 0 0 REAL ()) 0
'0.00000000000000@0') ()) ((CONSTANT (REAL 8 0 0 0 REAL ()) 0
'0.00000000000000@0') ()) ((CONSTANT (REAL 8 0 0 0 REAL ()) 0
'0.1a1e3ab826dbc1@1') ()) ((CONSTANT (REAL 8 0 0 0 REAL ()) 0
'0.00000000000000@0') ()) ((CONSTANT (REAL 8 0 0 0 REAL ()) 0
'0.00000000000000@0') ()) ((CONSTANT (REAL 8 0 0 0 REAL ()) 0
'0.00000000000000@0') ()) ((CONSTANT (REAL 8 0 0 0 REAL ()) 0
'0.00000000000000@0') ()) ((CONSTANT (REAL 8 0 0 0 REAL ()) 0
'0.00000000000000@0') ()) ((CONSTANT (REAL 8 0 0 0 REAL ()) 0
'0.00000000000000@0') ()) ((CONSTANT (REAL 8 0 0 0 REAL ()) 0
'0.00000000000000@0') ()) ((CONSTANT (REAL 8 0 0 0 REAL ()) 0
'-0.44caf470bbf290@0') ()) ((CONSTANT (REAL 8 0 0 0 REAL ()) 0
'0.00000000000000@0') ()) ((CONSTANT (REAL 8 0 0 0 REAL ()) 0
'-0.44caf470bbf290@0') ()) ((CONSTANT (REAL 8 0 0 0 REAL ()) 0
'0.00000000000000@0') ()) ((CONSTANT (REAL 8 0 0 0 REAL ()) 0
'0.1a1e3ab826dbc1@1') ()) ((CONSTANT (REAL 8 0 0 0 REAL ()) 0
'0.00000000000000@0') ()) ((CONSTANT (REAL 8 0 0 0 REAL ()) 0
'0.00000000000000@0') ()) ((CONSTANT (REAL 8 0 0 0 REAL ()) 0
'0.00000000000000@0') ()) ((CONSTANT (REAL 8 0 0 0 REAL ()) 0
'-0.44caf470bbf290@0') ()) ((CONSTANT (REAL 8 0 0 0 REAL ()) 0
'0.00000000000000@0') ()) ((CONSTANT (REAL 8 0 0 0 REAL ()) 0
'0.00000000000000@0') ()) ((CONSTANT (REAL 8 0 0 0 REAL ()) 0
'0.00000000000000@0') ()) ((CONSTANT (REAL 8 0 0 0 REAL ()) 0
'-0.15d18b711b1c99@1') ())) ('3' '3' '3' '3')) (4 0 EXPLICIT (CONSTANT (
INTEGER 4 0 0 0 INTEGER ()) 0 '1') (CONSTANT (INTEGER 4 0 0 0 INTEGER ())
0 '3') (CONSTANT (INTEGER 4 0 0 0 INTEGER ()) 0 '1') (CONSTANT (INTEGER
4 0 0 0 INTEGER ()) 0 '3') (CONSTANT (INTEGER 4 0 0 0 INTEGER ()) 0 '1')
(CONSTANT (INTEGER 4 0 0 0 INTEGER ()) 0 '3') (CONSTANT (INTEGER 4 0 0 0
INTEGER ()) 0 '1') (CONSTANT (INTEGER 4 0 0 0 INTEGER ()) 0 '3')) 0 () ()
() 0 0)
4 'o0' 'multipole_parameters' '' 1 ((PARAMETER UNKNOWN-INTENT
UNKNOWN-PROC UNKNOWN IMPLICIT-SAVE 0 0 DIMENSION) (REAL 8 0 0 0 REAL ())
0 0 () (ARRAY (REAL 8 0 0 0 REAL ()) 3 (((CONSTANT (REAL 8 0 0 0 REAL ())
0 '0.00000000000000@0') ()) ((CONSTANT (REAL 8 0 0 0 REAL ()) 0
'0.00000000000000@0') ()) ((CONSTANT (REAL 8 0 0 0 REAL ()) 0
'-0.2542e6ef8d1ba2@1') ()) ((CONSTANT (REAL 8 0 0 0 REAL ()) 0
'0.00000000000000@0') ()) ((CONSTANT (REAL 8 0 0 0 REAL ()) 0
'0.00000000000000@0') ()) ((CONSTANT (REAL 8 0 0 0 REAL ()) 0
'0.00000000000000@0') ()) ((CONSTANT (REAL 8 0 0 0 REAL ()) 0
'-0.2542e6ef8d1ba2@1') ()) ((CONSTANT (REAL 8 0 0 0 REAL ()) 0
'0.00000000000000@0') ()) ((CONSTANT (REAL 8 0 0 0 REAL ()) 0
'0.00000000000000@0') ()) ((CONSTANT (REAL 8 0 0 0 REAL ()) 0
'0.00000000000000@0') ()) ((CONSTANT (REAL 8 0 0 0 REAL ()) 0
'0.00000000000000@0') ()) ((CONSTANT (REAL 8 0 0 0 REAL ()) 0
'0.00000000000000@0') ()) ((CONSTANT (REAL 8 0 0 0 REAL ()) 0
'0.00000000000000@0') ()) ((CONSTANT (REAL 8 0 0 0 REAL ()) 0
'0.00000000000000@0') ()) ((CONSTANT (REAL 8 0 0 0 REAL ()) 0
'0.f8e9d03f6d86b0@0') ()) ((CONSTANT (REAL 8 0 0 0 REAL ()) 0
'0.00000000000000@0') ()) ((CONSTANT (REAL 8 0 0 0 REAL ()) 0
'0.f8e9d03f6d86b0@0') ()) ((CONSTANT (REAL 8 0 0 0 REAL ()) 0
'0.00000000000000@0') ()) ((CONSTANT (REAL 8 0 0 0 REAL ()) 0
'-0.2542e6ef8d1ba2@1') ()) ((CONSTANT (REAL 8 0 0 0 REAL ()) 0
'0.00000000000000@0') ()) ((CONSTANT (REAL 8 0 0 0 REAL ()) 0
'0.00000000000000@0') ()) ((CONSTANT (REAL 8 0 0 0 REAL ()) 0
'0.00000000000000@0') ()) ((CONSTANT (REAL 8 0 0 0 REAL ()) 0
'0.f8e9d03f6d86b0@0') ()) ((CONSTANT (REAL 8 0 0 0 REAL ()) 0
'0.00000000000000@0') ()) ((CONSTANT (REAL 8 0 0 0 REAL ()) 0
'0.00000000000000@0') ()) ((CONSTANT (REAL 8 0 0 0 REAL ()) 0
'0.00000000000000@0') ()) ((CONSTANT (REAL 8 0 0 0 REAL ()) 0
'0.15b45162397733@1') ())) ('3' '3' '3')) (3 0 EXPLICIT (CONSTANT (
INTEGER 4 0 0 0 INTEGER ()) 0 '1') (CONSTANT (INTEGER 4 0 0 0 INTEGER ())
0 '3') (CONSTANT (INTEGER 4 0 0 0 INTEGER ()) 0 '1') (CONSTANT (INTEGER
4 0 0 0 INTEGER ()) 0 '3') (CONSTANT (INTEGER 4 0 0 0 INTEGER ()) 0 '1')
(CONSTANT (INTEGER 4 0 0 0 INTEGER ()) 0 '3')) 0 () () () 0 0)
5 'q0' 'multipole_parameters' '' 1 ((PARAMETER UNKNOWN-INTENT
UNKNOWN-PROC UNKNOWN IMPLICIT-SAVE 0 0 DIMENSION) (REAL 8 0 0 0 REAL ())
0 0 () (ARRAY (REAL 8 0 0 0 REAL ()) 2 (((CONSTANT (REAL 8 0 0 0 REAL ())
0 '0.2a1477bedcc224@1') ()) ((CONSTANT (REAL 8 0 0 0 REAL ()) 0
'0.00000000000000@0') ()) ((CONSTANT (REAL 8 0 0 0 REAL ()) 0
'0.00000000000000@0') ()) ((CONSTANT (REAL 8 0 0 0 REAL ()) 0
'0.00000000000000@0') ()) ((CONSTANT (REAL 8 0 0 0 REAL ()) 0
'-0.27fffe258b04ca@1') ()) ((CONSTANT (REAL 8 0 0 0 REAL ()) 0
'0.00000000000000@0') ()) ((CONSTANT (REAL 8 0 0 0 REAL ()) 0
'0.00000000000000@0') ()) ((CONSTANT (REAL 8 0 0 0 REAL ()) 0
'0.00000000000000@0') ()) ((CONSTANT (REAL 8 0 0 0 REAL ()) 0
'-0.214799951bd59c@0') ())) ('3' '3')) (2 0 EXPLICIT (CONSTANT (INTEGER
4 0 0 0 INTEGER ()) 0 '1') (CONSTANT (INTEGER 4 0 0 0 INTEGER ()) 0 '3')
(CONSTANT (INTEGER 4 0 0 0 INTEGER ()) 0 '1') (CONSTANT (INTEGER 4 0 0 0
INTEGER ()) 0 '3')) 0 () () () 0 0)
)

('d0' 0 2 'h0' 0 3 'o0' 0 4 'q0' 0 5)
