GFORTRAN module version '10' created from src/polariz_parameters.f90
MD5:b185019e49a72f7f7b0ab97062586914 -- If you edit this, you'll get what you deserve.

(() () () () () () () () () () () () () () () () () () () () () () ()
() () () ())

()

()

()

()

()

(2 'dd0' 'polariz_parameters' '' 1 ((PARAMETER UNKNOWN-INTENT
UNKNOWN-PROC UNKNOWN IMPLICIT-SAVE 0 0 DIMENSION) (REAL 8 0 0 0 REAL ())
0 0 () (ARRAY (REAL 8 0 0 0 REAL ()) 2 (((CONSTANT (REAL 8 0 0 0 REAL ())
0 '0.1872af84794831@1') ()) ((CONSTANT (REAL 8 0 0 0 REAL ()) 0
'0.00000000000000@0') ()) ((CONSTANT (REAL 8 0 0 0 REAL ()) 0
'0.00000000000000@0') ()) ((CONSTANT (REAL 8 0 0 0 REAL ()) 0
'0.00000000000000@0') ()) ((CONSTANT (REAL 8 0 0 0 REAL ()) 0
'0.16a3d6cf698244@1') ()) ((CONSTANT (REAL 8 0 0 0 REAL ()) 0
'0.00000000000000@0') ()) ((CONSTANT (REAL 8 0 0 0 REAL ()) 0
'0.00000000000000@0') ()) ((CONSTANT (REAL 8 0 0 0 REAL ()) 0
'0.00000000000000@0') ()) ((CONSTANT (REAL 8 0 0 0 REAL ()) 0
'0.177ced05a9ff78@1') ())) ('3' '3')) (2 0 EXPLICIT (CONSTANT (INTEGER 4
0 0 0 INTEGER ()) 0 '1') (CONSTANT (INTEGER 4 0 0 0 INTEGER ()) 0 '3') (
CONSTANT (INTEGER 4 0 0 0 INTEGER ()) 0 '1') (CONSTANT (INTEGER 4 0 0 0
INTEGER ()) 0 '3')) 0 () () () 0 0)
3 'dq0' 'polariz_parameters' '' 1 ((PARAMETER UNKNOWN-INTENT
UNKNOWN-PROC UNKNOWN IMPLICIT-SAVE 0 0 DIMENSION) (REAL 8 0 0 0 REAL ())
0 0 () (ARRAY (REAL 8 0 0 0 REAL ()) 3 (((CONSTANT (REAL 8 0 0 0 REAL ())
0 '0.00000000000000@0') ()) ((CONSTANT (REAL 8 0 0 0 REAL ()) 0
'0.00000000000000@0') ()) ((CONSTANT (REAL 8 0 0 0 REAL ()) 0
'-0.3a77ba386443f8@0') ()) ((CONSTANT (REAL 8 0 0 0 REAL ()) 0
'0.00000000000000@0') ()) ((CONSTANT (REAL 8 0 0 0 REAL ()) 0
'0.00000000000000@0') ()) ((CONSTANT (REAL 8 0 0 0 REAL ()) 0
'0.00000000000000@0') ()) ((CONSTANT (REAL 8 0 0 0 REAL ()) 0
'-0.a908d07ef2a038@0') ()) ((CONSTANT (REAL 8 0 0 0 REAL ()) 0
'0.00000000000000@0') ()) ((CONSTANT (REAL 8 0 0 0 REAL ()) 0
'0.00000000000000@0') ()) ((CONSTANT (REAL 8 0 0 0 REAL ()) 0
'0.00000000000000@0') ()) ((CONSTANT (REAL 8 0 0 0 REAL ()) 0
'0.00000000000000@0') ()) ((CONSTANT (REAL 8 0 0 0 REAL ()) 0
'0.00000000000000@0') ()) ((CONSTANT (REAL 8 0 0 0 REAL ()) 0
'0.00000000000000@0') ()) ((CONSTANT (REAL 8 0 0 0 REAL ()) 0
'0.00000000000000@0') ()) ((CONSTANT (REAL 8 0 0 0 REAL ()) 0
'0.5ed54b758af7f0@0') ()) ((CONSTANT (REAL 8 0 0 0 REAL ()) 0
'0.00000000000000@0') ()) ((CONSTANT (REAL 8 0 0 0 REAL ()) 0
'-0.1ac782ac50cb28@0') ()) ((CONSTANT (REAL 8 0 0 0 REAL ()) 0
'0.00000000000000@0') ()) ((CONSTANT (REAL 8 0 0 0 REAL ()) 0
'-0.a908d07ef2a038@0') ()) ((CONSTANT (REAL 8 0 0 0 REAL ()) 0
'0.00000000000000@0') ()) ((CONSTANT (REAL 8 0 0 0 REAL ()) 0
'0.00000000000000@0') ()) ((CONSTANT (REAL 8 0 0 0 REAL ()) 0
'0.00000000000000@0') ()) ((CONSTANT (REAL 8 0 0 0 REAL ()) 0
'-0.1ac782ac50cb28@0') ()) ((CONSTANT (REAL 8 0 0 0 REAL ()) 0
'0.00000000000000@0') ()) ((CONSTANT (REAL 8 0 0 0 REAL ()) 0
'0.00000000000000@0') ()) ((CONSTANT (REAL 8 0 0 0 REAL ()) 0
'0.00000000000000@0') ()) ((CONSTANT (REAL 8 0 0 0 REAL ()) 0
'-0.245d913d26b3f6@0') ())) ('3' '3' '3')) (3 0 EXPLICIT (CONSTANT (
INTEGER 4 0 0 0 INTEGER ()) 0 '1') (CONSTANT (INTEGER 4 0 0 0 INTEGER ())
0 '3') (CONSTANT (INTEGER 4 0 0 0 INTEGER ()) 0 '1') (CONSTANT (INTEGER
4 0 0 0 INTEGER ()) 0 '3') (CONSTANT (INTEGER 4 0 0 0 INTEGER ()) 0 '1')
(CONSTANT (INTEGER 4 0 0 0 INTEGER ()) 0 '3')) 0 () () () 0 0)
4 'hp0' 'polariz_parameters' '' 1 ((PARAMETER UNKNOWN-INTENT
UNKNOWN-PROC UNKNOWN IMPLICIT-SAVE 0 0 DIMENSION) (REAL 8 0 0 0 REAL ())
0 0 () (ARRAY (REAL 8 0 0 0 REAL ()) 3 (((CONSTANT (REAL 8 0 0 0 REAL ())
0 '0.00000000000000@0') ()) ((CONSTANT (REAL 8 0 0 0 REAL ()) 0
'0.00000000000000@0') ()) ((CONSTANT (REAL 8 0 0 0 REAL ()) 0
'0.00000000000000@0') ()) ((CONSTANT (REAL 8 0 0 0 REAL ()) 0
'0.00000000000000@0') ()) ((CONSTANT (REAL 8 0 0 0 REAL ()) 0
'0.00000000000000@0') ()) ((CONSTANT (REAL 8 0 0 0 REAL ()) 0
'0.00000000000000@0') ()) ((CONSTANT (REAL 8 0 0 0 REAL ()) 0
'0.00000000000000@0') ()) ((CONSTANT (REAL 8 0 0 0 REAL ()) 0
'0.00000000000000@0') ()) ((CONSTANT (REAL 8 0 0 0 REAL ()) 0
'0.00000000000000@0') ()) ((CONSTANT (REAL 8 0 0 0 REAL ()) 0
'0.00000000000000@0') ()) ((CONSTANT (REAL 8 0 0 0 REAL ()) 0
'0.00000000000000@0') ()) ((CONSTANT (REAL 8 0 0 0 REAL ()) 0
'0.00000000000000@0') ()) ((CONSTANT (REAL 8 0 0 0 REAL ()) 0
'0.00000000000000@0') ()) ((CONSTANT (REAL 8 0 0 0 REAL ()) 0
'0.00000000000000@0') ()) ((CONSTANT (REAL 8 0 0 0 REAL ()) 0
'0.00000000000000@0') ()) ((CONSTANT (REAL 8 0 0 0 REAL ()) 0
'0.00000000000000@0') ()) ((CONSTANT (REAL 8 0 0 0 REAL ()) 0
'0.00000000000000@0') ()) ((CONSTANT (REAL 8 0 0 0 REAL ()) 0
'0.00000000000000@0') ()) ((CONSTANT (REAL 8 0 0 0 REAL ()) 0
'0.00000000000000@0') ()) ((CONSTANT (REAL 8 0 0 0 REAL ()) 0
'0.00000000000000@0') ()) ((CONSTANT (REAL 8 0 0 0 REAL ()) 0
'0.00000000000000@0') ()) ((CONSTANT (REAL 8 0 0 0 REAL ()) 0
'0.00000000000000@0') ()) ((CONSTANT (REAL 8 0 0 0 REAL ()) 0
'0.00000000000000@0') ()) ((CONSTANT (REAL 8 0 0 0 REAL ()) 0
'0.00000000000000@0') ()) ((CONSTANT (REAL 8 0 0 0 REAL ()) 0
'0.00000000000000@0') ()) ((CONSTANT (REAL 8 0 0 0 REAL ()) 0
'0.00000000000000@0') ()) ((CONSTANT (REAL 8 0 0 0 REAL ()) 0
'0.00000000000000@0') ())) ('3' '3' '3')) (3 0 EXPLICIT (CONSTANT (
INTEGER 4 0 0 0 INTEGER ()) 0 '1') (CONSTANT (INTEGER 4 0 0 0 INTEGER ())
0 '3') (CONSTANT (INTEGER 4 0 0 0 INTEGER ()) 0 '1') (CONSTANT (INTEGER
4 0 0 0 INTEGER ()) 0 '3') (CONSTANT (INTEGER 4 0 0 0 INTEGER ()) 0 '1')
(CONSTANT (INTEGER 4 0 0 0 INTEGER ()) 0 '3')) 0 () () () 0 0)
5 'qq0' 'polariz_parameters' '' 1 ((PARAMETER UNKNOWN-INTENT
UNKNOWN-PROC UNKNOWN IMPLICIT-SAVE 0 0 DIMENSION) (REAL 8 0 0 0 REAL ())
0 0 () (ARRAY (REAL 8 0 0 0 REAL ()) 4 (((CONSTANT (REAL 8 0 0 0 REAL ())
0 '0.80bd802edb4410@0') ()) ((CONSTANT (REAL 8 0 0 0 REAL ()) 0
'0.00000000000000@0') ()) ((CONSTANT (REAL 8 0 0 0 REAL ()) 0
'0.00000000000000@0') ()) ((CONSTANT (REAL 8 0 0 0 REAL ()) 0
'0.00000000000000@0') ()) ((CONSTANT (REAL 8 0 0 0 REAL ()) 0
'-0.49dd366e73bffc@0') ()) ((CONSTANT (REAL 8 0 0 0 REAL ()) 0
'0.00000000000000@0') ()) ((CONSTANT (REAL 8 0 0 0 REAL ()) 0
'0.00000000000000@0') ()) ((CONSTANT (REAL 8 0 0 0 REAL ()) 0
'0.00000000000000@0') ()) ((CONSTANT (REAL 8 0 0 0 REAL ()) 0
'-0.36e050b6a39c82@0') ()) ((CONSTANT (REAL 8 0 0 0 REAL ()) 0
'0.00000000000000@0') ()) ((CONSTANT (REAL 8 0 0 0 REAL ()) 0
'0.5385300ad1aa64@0') ()) ((CONSTANT (REAL 8 0 0 0 REAL ()) 0
'0.00000000000000@0') ()) ((CONSTANT (REAL 8 0 0 0 REAL ()) 0
'0.5385300ad1aa64@0') ()) ((CONSTANT (REAL 8 0 0 0 REAL ()) 0
'0.00000000000000@0') ()) ((CONSTANT (REAL 8 0 0 0 REAL ()) 0
'0.00000000000000@0') ()) ((CONSTANT (REAL 8 0 0 0 REAL ()) 0
'0.00000000000000@0') ()) ((CONSTANT (REAL 8 0 0 0 REAL ()) 0
'0.00000000000000@0') ()) ((CONSTANT (REAL 8 0 0 0 REAL ()) 0
'0.00000000000000@0') ()) ((CONSTANT (REAL 8 0 0 0 REAL ()) 0
'0.00000000000000@0') ()) ((CONSTANT (REAL 8 0 0 0 REAL ()) 0
'0.00000000000000@0') ()) ((CONSTANT (REAL 8 0 0 0 REAL ()) 0
'0.7f5abeca9150e4@0') ()) ((CONSTANT (REAL 8 0 0 0 REAL ()) 0
'0.00000000000000@0') ()) ((CONSTANT (REAL 8 0 0 0 REAL ()) 0
'0.00000000000000@0') ()) ((CONSTANT (REAL 8 0 0 0 REAL ()) 0
'0.00000000000000@0') ()) ((CONSTANT (REAL 8 0 0 0 REAL ()) 0
'0.7f5abeca9150e4@0') ()) ((CONSTANT (REAL 8 0 0 0 REAL ()) 0
'0.00000000000000@0') ()) ((CONSTANT (REAL 8 0 0 0 REAL ()) 0
'0.00000000000000@0') ()) ((CONSTANT (REAL 8 0 0 0 REAL ()) 0
'0.00000000000000@0') ()) ((CONSTANT (REAL 8 0 0 0 REAL ()) 0
'0.5385300ad1aa64@0') ()) ((CONSTANT (REAL 8 0 0 0 REAL ()) 0
'0.00000000000000@0') ()) ((CONSTANT (REAL 8 0 0 0 REAL ()) 0
'0.5385300ad1aa64@0') ()) ((CONSTANT (REAL 8 0 0 0 REAL ()) 0
'0.00000000000000@0') ()) ((CONSTANT (REAL 8 0 0 0 REAL ()) 0
'0.00000000000000@0') ()) ((CONSTANT (REAL 8 0 0 0 REAL ()) 0
'0.00000000000000@0') ()) ((CONSTANT (REAL 8 0 0 0 REAL ()) 0
'0.00000000000000@0') ()) ((CONSTANT (REAL 8 0 0 0 REAL ()) 0
'0.00000000000000@0') ()) ((CONSTANT (REAL 8 0 0 0 REAL ()) 0
'-0.49dd366e73bffc@0') ()) ((CONSTANT (REAL 8 0 0 0 REAL ()) 0
'0.00000000000000@0') ()) ((CONSTANT (REAL 8 0 0 0 REAL ()) 0
'0.00000000000000@0') ()) ((CONSTANT (REAL 8 0 0 0 REAL ()) 0
'0.00000000000000@0') ()) ((CONSTANT (REAL 8 0 0 0 REAL ()) 0
'0.777b0b2ccde530@0') ()) ((CONSTANT (REAL 8 0 0 0 REAL ()) 0
'0.00000000000000@0') ()) ((CONSTANT (REAL 8 0 0 0 REAL ()) 0
'0.00000000000000@0') ()) ((CONSTANT (REAL 8 0 0 0 REAL ()) 0
'0.00000000000000@0') ()) ((CONSTANT (REAL 8 0 0 0 REAL ()) 0
'-0.2d9dd4be5a2534@0') ()) ((CONSTANT (REAL 8 0 0 0 REAL ()) 0
'0.00000000000000@0') ()) ((CONSTANT (REAL 8 0 0 0 REAL ()) 0
'0.00000000000000@0') ()) ((CONSTANT (REAL 8 0 0 0 REAL ()) 0
'0.00000000000000@0') ()) ((CONSTANT (REAL 8 0 0 0 REAL ()) 0
'0.00000000000000@0') ()) ((CONSTANT (REAL 8 0 0 0 REAL ()) 0
'0.00000000000000@0') ()) ((CONSTANT (REAL 8 0 0 0 REAL ()) 0
'0.47f0fcdd82fd18@0') ()) ((CONSTANT (REAL 8 0 0 0 REAL ()) 0
'0.00000000000000@0') ()) ((CONSTANT (REAL 8 0 0 0 REAL ()) 0
'0.47f0fcdd82fd18@0') ()) ((CONSTANT (REAL 8 0 0 0 REAL ()) 0
'0.00000000000000@0') ()) ((CONSTANT (REAL 8 0 0 0 REAL ()) 0
'0.00000000000000@0') ()) ((CONSTANT (REAL 8 0 0 0 REAL ()) 0
'0.00000000000000@0') ()) ((CONSTANT (REAL 8 0 0 0 REAL ()) 0
'0.7f5abeca9150e4@0') ()) ((CONSTANT (REAL 8 0 0 0 REAL ()) 0
'0.00000000000000@0') ()) ((CONSTANT (REAL 8 0 0 0 REAL ()) 0
'0.00000000000000@0') ()) ((CONSTANT (REAL 8 0 0 0 REAL ()) 0
'0.00000000000000@0') ()) ((CONSTANT (REAL 8 0 0 0 REAL ()) 0
'0.7f5abeca9150e4@0') ()) ((CONSTANT (REAL 8 0 0 0 REAL ()) 0
'0.00000000000000@0') ()) ((CONSTANT (REAL 8 0 0 0 REAL ()) 0
'0.00000000000000@0') ()) ((CONSTANT (REAL 8 0 0 0 REAL ()) 0
'0.00000000000000@0') ()) ((CONSTANT (REAL 8 0 0 0 REAL ()) 0
'0.00000000000000@0') ()) ((CONSTANT (REAL 8 0 0 0 REAL ()) 0
'0.00000000000000@0') ()) ((CONSTANT (REAL 8 0 0 0 REAL ()) 0
'0.00000000000000@0') ()) ((CONSTANT (REAL 8 0 0 0 REAL ()) 0
'0.00000000000000@0') ()) ((CONSTANT (REAL 8 0 0 0 REAL ()) 0
'0.47f0fcdd82fd18@0') ()) ((CONSTANT (REAL 8 0 0 0 REAL ()) 0
'0.00000000000000@0') ()) ((CONSTANT (REAL 8 0 0 0 REAL ()) 0
'0.47f0fcdd82fd18@0') ()) ((CONSTANT (REAL 8 0 0 0 REAL ()) 0
'0.00000000000000@0') ()) ((CONSTANT (REAL 8 0 0 0 REAL ()) 0
'-0.36e050b6a39c82@0') ()) ((CONSTANT (REAL 8 0 0 0 REAL ()) 0
'0.00000000000000@0') ()) ((CONSTANT (REAL 8 0 0 0 REAL ()) 0
'0.00000000000000@0') ()) ((CONSTANT (REAL 8 0 0 0 REAL ()) 0
'0.00000000000000@0') ()) ((CONSTANT (REAL 8 0 0 0 REAL ()) 0
'-0.2d9dd4be5a2534@0') ()) ((CONSTANT (REAL 8 0 0 0 REAL ()) 0
'0.00000000000000@0') ()) ((CONSTANT (REAL 8 0 0 0 REAL ()) 0
'0.00000000000000@0') ()) ((CONSTANT (REAL 8 0 0 0 REAL ()) 0
'0.00000000000000@0') ()) ((CONSTANT (REAL 8 0 0 0 REAL ()) 0
'0.647e2574fdc1b8@0') ())) ('3' '3' '3' '3')) (4 0 EXPLICIT (CONSTANT (
INTEGER 4 0 0 0 INTEGER ()) 0 '1') (CONSTANT (INTEGER 4 0 0 0 INTEGER ())
0 '3') (CONSTANT (INTEGER 4 0 0 0 INTEGER ()) 0 '1') (CONSTANT (INTEGER
4 0 0 0 INTEGER ()) 0 '3') (CONSTANT (INTEGER 4 0 0 0 INTEGER ()) 0 '1')
(CONSTANT (INTEGER 4 0 0 0 INTEGER ()) 0 '3') (CONSTANT (INTEGER 4 0 0 0
INTEGER ()) 0 '1') (CONSTANT (INTEGER 4 0 0 0 INTEGER ()) 0 '3')) 0 () ()
() 0 0)
)

('dd0' 0 2 'dq0' 0 3 'hp0' 0 4 'qq0' 0 5)
