GFORTRAN module version '10' created from src/scme.f90
MD5:edc0c6d0c51f20346cd3d3bfc8ecee93 -- If you edit this, you'll get what you deserve.

(() () () () () () () () () () () () () () () () () () () () () () ()
() () () ())

()

()

()

()

()

(2 'scme_calculate' 'scme' '' 1 ((PROCEDURE UNKNOWN-INTENT MODULE-PROC
DECL UNKNOWN 0 0 SUBROUTINE) (UNKNOWN 0 0 0 0 UNKNOWN ()) 3 0 (4 5 6 7 8)
() 0 () () () 0 0)
4 'n_atoms' '' '' 3 ((VARIABLE IN UNKNOWN-PROC UNKNOWN UNKNOWN 0 0 DUMMY)
(INTEGER 4 0 0 0 INTEGER ()) 0 0 () () 0 () () () 0 0)
5 'coords' '' '' 3 ((VARIABLE IN UNKNOWN-PROC UNKNOWN UNKNOWN 0 0
DIMENSION DUMMY) (REAL 8 0 0 0 REAL ()) 0 0 () (1 0 EXPLICIT (CONSTANT (
INTEGER 4 0 0 0 INTEGER ()) 0 '1') (OP (INTEGER 4 0 0 0 INTEGER ()) 0
TIMES (VARIABLE (INTEGER 4 0 0 0 INTEGER ()) 0 4 ()) (CONSTANT (INTEGER
4 0 0 0 INTEGER ()) 0 '3'))) 0 () () () 0 0)
6 'lattice' '' '' 3 ((VARIABLE IN UNKNOWN-PROC UNKNOWN UNKNOWN 0 0
DIMENSION DUMMY) (REAL 8 0 0 0 REAL ()) 0 0 () (1 0 EXPLICIT (CONSTANT (
INTEGER 4 0 0 0 INTEGER ()) 0 '1') (CONSTANT (INTEGER 4 0 0 0 INTEGER ())
0 '3')) 0 () () () 0 0)
7 'fa' '' '' 3 ((VARIABLE OUT UNKNOWN-PROC UNKNOWN UNKNOWN 0 0 DIMENSION
DUMMY) (REAL 8 0 0 0 REAL ()) 0 0 () (1 0 EXPLICIT (CONSTANT (INTEGER 4
0 0 0 INTEGER ()) 0 '1') (OP (INTEGER 4 0 0 0 INTEGER ()) 0 TIMES (
VARIABLE (INTEGER 4 0 0 0 INTEGER ()) 0 4 ()) (CONSTANT (INTEGER 4 0 0 0
INTEGER ()) 0 '3'))) 0 () () () 0 0)
8 'u_tot' '' '' 3 ((VARIABLE OUT UNKNOWN-PROC UNKNOWN UNKNOWN 0 0 DUMMY)
(REAL 8 0 0 0 REAL ()) 0 0 () () 0 () () () 0 0)
)

('scme_calculate' 0 2)
